{
  "alias_barrier_modules": [
    "Tezos_protocol_environment_alpha__Environment"
  ],
  "constructor_map": [
    ["public_key_hash", "Ed25519", "Ed25519Hash"],
    ["public_key_hash", "P256", "P256Hash"],
    ["public_key_hash", "Secp256k1", "Secp256k1Hash"]
  ],
  "error_category_blacklist": [
    "extensible_type",
    "module",
    "side_effect"
  ],
  "error_filename_blacklist": [
    "apply.ml",
    "contract_hash.ml",
    "contract_repr.ml",
    "lazy_storage_diff.ml",
    "lazy_storage_kind.ml",
    "level_repr.ml",
    "main.mli",
    "michelson_v1_gas.ml",
    "misc.ml",
    "nonce_hash.ml",
    "raw_context.ml",
    "raw_context.mli",
    "raw_level_repr.ml",
    "script_expr_hash.ml",
    "script_interpreter.ml",
    "script_ir_translator.ml",
    "state_hash.ml",
    "storage_functors.ml",
    "storage_functors.mli",
    "storage.ml",
    "storage_sigs.ml",
    "tez_repr.ml",
    "voting_period_repr.ml"
  ],
  "error_message_blacklist": [
    "Unbound module Tezos_protocol_alpha_functor"
  ],
  "escape_value": [
    "a",
    "b",
    "baking_rights_query",
    "case",
    "cons",
    "descr",
    "elt",
    "endorsing_rights_query",
    "eq",
    "error",
    "field",
    "fixed",
    "frozen_balance",
    "handler",
    "hash",
    "info",
    "internal_gas",
    "json",
    "json_schema",
    "judgement",
    "key",
    "lazy_expr",
    "level_query",
    "list_query",
    "nonce",
    "query",
    "p",
    "parametric",
    "r",
    "raw",
    "seed",
    "sequence",
    "snapshot",
    "stack",
    "storage_error",
    "t",
    "tc_context",
    "type_logger"
  ],
  "first_class_module_path_blacklist": [
    "Tezos_raw_protocol_alpha"
  ],
  "head_suffix": "Import Environment.Notations.\n",
  "monadic_operators": [
    ["Error_monad.op_gtgteq", "let="],
    ["Error_monad.op_gtgteqquestion", "let=?"],
    ["Error_monad.op_gtgtquestion", "let?"]
  ],
  "require": [
    ["Tezos_raw_protocol_alpha", "TezosOfOCaml.Proto_alpha"]
  ],
  "require_import": [
    ["Tezos_protocol_environment_alpha", "TezosOfOCaml.Proto_alpha"]
  ],
  "require_long_ident": [
    ["Storage_description", "TezosOfOCaml.Proto_alpha"]
  ],
  "require_mli": [
    "Storage",
    "Storage_functors"
  ],
  "variant_constructors": [
    ["Dir", "Context.Dir"],
    ["Key", "Context.Key"],
    ["Uint16", "Data_encoding.Uint16"],
    ["Uint8", "Data_encoding.Uint8"],
    ["Hex", "MBytes.Hex"]
  ],
  "variant_types": [
    ["Dir", "Context.key_or_dir"],
    ["Key", "Context.key_or_dir"]
  ],
  "without_guard_checking": [
    "apply.ml",
    "apply_results.ml",
    "baking.ml",
    "contract_repr.ml",
    "legacy_script_support_repr.ml",
    "level_storage.ml",
    "michelson_v1_gas.ml",
    "michelson_v1_primitives.ml",
    "misc.ml",
    "operation_repr.ml",
    "qty_repr.ml",
    "raw_context.ml",
    "roll_storage.ml",
    "script_interpreter.ml",
    "script_ir_annot.ml",
    "script_ir_translator.ml",
    "script_repr.ml",
    "seed_repr.ml",
    "storage_description.ml",
    "storage_functors.ml"
  ],
  "without_positivity_checking": [
    "storage_description.ml"
  ]
}
