tezt/_regressions/alpha.alpha.gas.out

./tezos-codec encode alpha.gas from '"1238"'
009613

./tezos-codec decode alpha.gas from 009613
"1238"

./tezos-codec encode alpha.gas from '"unaccounted"'
01

./tezos-codec decode alpha.gas from 01
"unaccounted"

./tezos-codec encode alpha.gas from '"0"'
0000

./tezos-codec decode alpha.gas from 0000
"0"
